<?xml version="1.0" encoding="UTF-8" standalone="no"?>
<svg
   xmlns:dc="http://purl.org/dc/elements/1.1/"
   xmlns:cc="http://creativecommons.org/ns#"
   xmlns:rdf="http://www.w3.org/1999/02/22-rdf-syntax-ns#"
   xmlns:svg="http://www.w3.org/2000/svg"
   xmlns="http://www.w3.org/2000/svg"
   version="1.1"
   viewBox="0 0 959.16 818.6"
   height="818.6"
   width="959.16"
   data-name="Layer 1"
   id="f3dab87e-8e17-45b3-a71d-8ebfb46e2440">
  <metadata
     id="metadata284">
    <rdf:RDF>
      <cc:Work
         rdf:about="">
        <dc:format>image/svg+xml</dc:format>
        <dc:type
           rdf:resource="http://purl.org/dc/dcmitype/StillImage" />
        <dc:title>airport</dc:title>
      </cc:Work>
    </rdf:RDF>
  </metadata>
  <defs
     id="defs9">
    <linearGradient
       gradientUnits="userSpaceOnUse"
       y2="79.98"
       x2="661.53"
       y1="801.03"
       x1="661.53"
       id="3505e4de-4cb3-4002-b88e-01c82e8a7133">
      <stop
         id="stop2"
         stop-opacity="0.25"
         stop-color="gray"
         offset="0" />
      <stop
         id="stop4"
         stop-opacity="0.12"
         stop-color="gray"
         offset="0.54" />
      <stop
         id="stop6"
         stop-opacity="0.1"
         stop-color="gray"
         offset="1" />
    </linearGradient>
  </defs>
  <title
     id="title11">airport</title>
  <path
     id="path29"
     opacity="0.1"
     fill="#0048a7"
     transform="translate(-120.42 -40.7)"
     d="M1041.57,609.59c-6.41,15.45-14.82,30.26-26.59,41.62-14.34,13.84-32.15,21.39-51.22,25a154.27,154.27,0,0,1-17,2.2c-15.07,1.16-30.5.39-45.3-1.22a535.59,535.59,0,0,1-106.7-22.83q-8.55-2.76-17-5.81Q765,644,752.49,638.73c-34-14.21-69.15-32.33-105.32-26.71-17.53,2.73-34,11-51.57,13.46a92.21,92.21,0,0,1-36.84-2.62,126.59,126.59,0,0,1-17-5.87,193.44,193.44,0,0,1-35.32-20c-26.5-18.52-50.28-41.48-78.18-57.52-30.76-17.69-64.81-26.1-99.5-32.37q-8.47-1.53-17-2.92c-16.05-2.65-32.14-5.1-48-8-15.28-2.82-30.83-6.27-44.13-14.75-9.49-6.05-17.47-14.43-24.79-23.26A277.49,277.49,0,0,1,160.3,405q-.75-1.5-1.47-3c-14.69-30.14-24.57-63-30.63-97-.18-1-.35-2-.52-3-5.7-33.33-7.78-67.79-7.15-102l.06-3c.39-16.89,1.44-33.71,3-50.29,1.12-11.66,2.62-23.76,8.66-33.56S148.15,97,158,91.78c43.3-23.07,84.81-29.49,131.39-18.31,7.48,1.79,14.93,3.72,22.38,5.72,5.67,1.52,11.34,3.09,17,4.67,39.13,10.91,78.16,22.52,118.61,26q5.86.51,11.73.78,11.61.54,23.22.24a401.19,401.19,0,0,0,59.44-6.12q8.52-1.47,17-3.26c24.4-5.09,48.58-11.88,72.37-19.39q7.29-2.3,14.56-4.68c10.92-3.57,21.84-7.21,32.78-10.75C711.13,56.09,744,46.42,777.76,42.52q4.34-.5,8.68-.87c2.77-.24,5.55-.43,8.32-.57,52.45-2.8,105.5,9.85,152,35.74q8.65,4.82,17,10.24,11.57,7.53,22.43,16.2c14.84,11.85,28.73,25.34,39.31,41.55,10.31,15.79,17,33.52,20.85,52.16.21,1,.41,2,.59,3,5.65,30.09,3.89,62.36-2.45,92.51-.67,3.16-1.38,6.33-2.12,9.49-.23,1-.47,2-.71,3-6.84,28.51-15.58,56.94-13.3,86.09.29,3.67.75,7.31,1.35,10.91.17,1,.34,2,.53,3,4.46,23.78,14.6,46.34,20.68,69.89A215.32,215.32,0,0,1,1041.57,609.59Z" />
  <path
     id="path31"
     opacity="0.1"
     fill="#0048a7"
     transform="translate(-120.42 -40.7)"
     d="M963.76,200h83.18c-.18-1-.38-2-.59-3H963.76V87.06q-8.34-5.41-17-10.24V197h-152V41.08c-2.77.14-5.55.33-8.32.57s-5.79.54-8.68.87V197h-217l-.52-.57L678.47,66.67c-10.94,3.54-21.86,7.18-32.78,10.75l-86.93,95.39V101.49q-8.49,1.79-17,3.26V176.1l-59.44-65.23q-11.61.28-23.22-.24l78.16,85.77-.52.57h-208V83.86c-5.66-1.58-11.33-3.15-17-4.67V197H120.59l-.06,3H311.76V302H127.68c.17,1,.34,2,.52,3H311.76v97H158.83q.72,1.5,1.47,3H311.76v99.26q8.52,1.39,17,2.92V405h213V617a126.59,126.59,0,0,0,17,5.87V405h219V648.54q8.46,3.06,17,5.81V405h152V678.4a154.27,154.27,0,0,0,17-2.2V405h66.48c-.19-1-.36-2-.53-3h-66V305h77.9c.24-1,.48-2,.71-3H963.76Zm-17,0V302h-152V200Zm-169,102h-219V200h219Zm-449-102h210l3,2.73V302h-213Zm0,202V305h213v97Zm230,0V305h219v97Zm388,0h-152V305h152Z" />
  <path
     id="path87"
     opacity="0.1"
     fill="#0048a7"
     transform="translate(-120.42 -40.7)"
     d="M873.68,129.74h-1.32a3.28,3.28,0,0,0,1.61-2.62h0c0-2.07-2.53-3.76-5.63-3.76H828.93c-3.1,0-5.63,1.69-5.63,3.76h0c0,2.06,2.53,3.75,5.63,3.75h1.31a3.27,3.27,0,0,0-1.6,2.62c0,1.77,1.84,3.25,4.3,3.65H821.59c-3.09,0-5.62,1.69-5.62,3.76s2.53,3.75,5.62,3.75H861c3.09,0,5.63-1.69,5.63-3.75,0-1.76-1.85-3.25-4.31-3.65h11.35c3.09,0,5.62-1.69,5.62-3.76S876.77,129.74,873.68,129.74Z" />
  <path
     id="path89"
     opacity="0.1"
     fill="#0048a7"
     transform="translate(-120.42 -40.7)"
     d="M446.52,165.5H445.2a3.27,3.27,0,0,0,1.61-2.62h0c0-2.06-2.53-3.76-5.63-3.76H401.77c-3.1,0-5.63,1.7-5.63,3.76h0c0,2.07,2.53,3.76,5.63,3.76h1.31a3.27,3.27,0,0,0-1.61,2.62c0,1.76,1.85,3.24,4.31,3.64H394.43c-3.09,0-5.62,1.69-5.62,3.76s2.53,3.76,5.62,3.76h39.42c3.09,0,5.62-1.69,5.62-3.76,0-1.76-1.84-3.25-4.3-3.65h11.35c3.09,0,5.62-1.69,5.62-3.75S449.61,165.5,446.52,165.5Z" />
  <path
     id="path91"
     opacity="0.1"
     fill="#0048a7"
     transform="translate(-120.42 -40.7)"
     d="M934.13,318.56h-1.31a3.27,3.27,0,0,0,1.61-2.62h0c0-2.07-2.54-3.76-5.63-3.76H889.38c-3.09,0-5.62,1.69-5.62,3.76h0c0,2.07,2.53,3.76,5.62,3.76h1.32a3.25,3.25,0,0,0-1.61,2.62c0,1.76,1.85,3.24,4.31,3.64H882.05c-3.09,0-5.62,1.69-5.62,3.76s2.53,3.76,5.62,3.76h39.42c3.09,0,5.62-1.69,5.62-3.76,0-1.76-1.84-3.25-4.3-3.65h11.34c3.1,0,5.63-1.69,5.63-3.75S937.23,318.56,934.13,318.56Z" />
  <ellipse
     style="opacity:0.1;fill:#0048a7"
     id="ellipse93"
     ry="46.650002"
     rx="303.97"
     cy="742.70001"
     cx="525.98999" />
  <ellipse
     id="ellipse95"
     opacity="0.1"
     fill="#0048a7"
     ry="11.45"
     rx="74.6"
     cy="789.35"
     cx="884.56" />
  <ellipse
     id="ellipse97"
     opacity="0.1"
     fill="#0048a7"
     ry="11.45"
     rx="74.6"
     cy="767.6"
     cx="102.56" />
  <ellipse
     id="ellipse99"
     opacity="0.1"
     fill="#0048a7"
     ry="6.35"
     rx="41.4"
     cy="812.24"
     cx="192.56" />
  <path
     id="path109"
     fill="url(#3505e4de-4cb3-4002-b88e-01c82e8a7133)"
     transform="translate(-120.42 -40.7)"
     d="M801.8,446.14l-2.33-6.68.87-.92-4.61-22.72a8.52,8.52,0,0,0,.19-2.44,10.42,10.42,0,0,0-2-6.67L793,402.2c0-.36,0-.71.07-1.07,1.89-26.53-9.46-58.61-9.46-58.61V313l-8.76-57.76h0c.17-28.89-11.17-39-11.17-39s-.93-.22-2.44-.68c-3-6.21-8.11-16-16.47-31.73a62.51,62.51,0,0,0-12-16.12,47.49,47.49,0,0,0-23.67-13.11,22,22,0,0,1,2.51-2.41c2-1.61,4.22-2.9,6.09-4.63a22.71,22.71,0,0,0,5.54-8.59,26.47,26.47,0,0,0,1.51-14.86,18.91,18.91,0,0,0-8.34-12.26,20.46,20.46,0,0,1-3.52-2.29c-1.43-1.37-2.1-3.3-2.83-5.11A47.83,47.83,0,0,0,698.94,88c-2-2-4.46-3.85-7.32-4.08s-5.68,1.3-8.38,2.46a35.09,35.09,0,0,1-29.25-1c-4.39-2.25-8.62-5.53-13.58-5.45a11.68,11.68,0,0,0-8.66,4.45c.09-.19.17-.38.27-.57a14.25,14.25,0,0,0-3.43,7.21v.27c0,7.16,1.87,15.29,7.78,20.2-.43.54-.86,1.08-1.26,1.64A40.52,40.52,0,0,0,628.56,147a5.46,5.46,0,0,0-.75.41l-5.64,3.82-12.84,11.1-5.74,3.88c6-4.42,14.6-11.62,12.54-13.27-2.84-2.27-31.54,6-38.12,13.67-2.83,3.31-6.49,9.5-9.73,15.48l-.23-.44c-.27.36-.58.79-.9,1.25l-.13-.24c-1.34,1.8-3.45,4.88-5.79,8.37-.85,1.26-1.73,2.58-2.6,3.91-9.09,10.21-26.56,30.78-29.09,40.66,0,0-17.19,27.87-13.06,41.64s20.8,16.46,32.83,12.26c8.59-3,29.89-13.27,41.36-18.9l-1.14,16.22s-9.38,66.64-16.71,93.68c-1.27,4.67-2.48,8.17-3.57,9.92a6.66,6.66,0,0,0-.39.71c-7.42,14.13-18.69,93.5-18.69,93.5s-10,10.58,9.28,11.93c13.28.92,21.24,12.23,24.9,19.16v.15c-.39,10.61-.56,19.66-.32,25.35.71,17.44-1.29,39.47-2.59,51.37a63.48,63.48,0,0,0,.56,17.89c2.82,16.29,8.92,49.55,13.89,63.74,6.7,19.14,3.61,40.3,3.61,40.3s6.7,20.65,12.89,28.21A5.85,5.85,0,0,0,614,744c-.08.61-.16,1.23-.27,1.86-1,5.89-3.25,12.69-8.19,17.82-7.32,7.61-17.47,18-18.66,25.56-.56,3.64.92,6.62,5.77,8.36,15,5.37,34.38,0,34.38,0s13.06-4.7,13.06-9.4,5.33-4.7,5.33-4.7l8.59-6a65.11,65.11,0,0,0,0-9.33c-.38-6-1.69-13.42-5.53-18.17a19.07,19.07,0,0,1-2.75-4.62,18.56,18.56,0,0,1-.65-1.9c3.58-.6,6.09-1,6.5-.74,1.55,1,6.19-26.7-5.67-41.31s-6.19-27.71-6.19-27.71-1.55-53.4-9.28-57.93c0,0,6.18-16.12,5.67-24.18s-3.09-24.18,0-27.71c1.46-1.67,7.47-13,13.36-24.42.35-.67.7-1.34,1-2,3.63.25,7.63.4,11.8.32.05.66.11,1.32.17,2,.93,10.06,3.18,21.09,8.18,29.16v50.88s3.61,14.61,6.7,20.66-9.62,47.85-9.62,47.85-7.06,51.13,0,57.55a12.41,12.41,0,0,0,5.16,2.4c.11.69.21,1.39.31,2.1,1,6.82,1.67,14.27.88,18.56a49.12,49.12,0,0,0,.08,16.66c.15.84.26,1.3.26,1.3s-3.26,16.29,19.26,13.95,24.92-9.41,24.92-9.41,0-.23-.05-.63a42.72,42.72,0,0,0-.64-4.79,51.91,51.91,0,0,0-8.33-19.75,15.66,15.66,0,0,1-3-8.42c0-2-.13-4.18-.24-6.36,0-.67-.07-1.34-.11-2,1.62-.11,2.59-.2,2.59-.2s7.21-12.59,6.7-36.78,5.67-46.34,5.67-46.34,1.55-36.27,0-41.31-3.27-33.55.69-37.43c2.74-2.69,6.3-35.73,8.23-55.74.07-.68.13-1.34.19-2,5.05-.2,8.25-.23,8.25-.23s.56-14.81,1.05-35l2.19-.83c-.94,1.51.07,5.61,7.37,3.55,9.41-2.64,21.92-4.91,21.92-4.91s6.7-4.79,7-8.19a38.17,38.17,0,0,1,1.16-5.14c14.67-5.85,26.73-10.73,26.73-10.73S810.74,460.41,801.8,446.14Zm-51.39-84.47,1.78,14.22-5,1.54-10.53.72c-2.93-26.61,2-71.39,2-71.39l.89-.58C744,324.15,750.41,361.67,750.41,361.67ZM697.84,176.28c-.22-.51-.43-1-.65-1.6l1,1.54A2.63,2.63,0,0,0,697.84,176.28ZM737,380.6l-.18-1.41,3.45-.73,5.45-.56ZM628.59,184.39c-1.47.35-3,.73-4.45,1.16l.26-.15,4.28-2.55a12.29,12.29,0,0,0-.09,1.49Zm-48.51,37.06c-3.44,1.68-5.16,1.51-5.16,1.51l7.9-15.3a38.8,38.8,0,0,0,2.47-4.32,13.21,13.21,0,0,1,7.12-.71s1.91-.43,4.86-1.15a31.6,31.6,0,0,0-1.9,2.68S583.51,219.77,580.08,221.45ZM743,493.09h0l2.48-.95C744.42,492.91,743.53,493.32,743,493.09Z" />
  <path
     id="path111"
     fill="#67647e"
     transform="translate(-120.42 -40.7)"
     d="M659.85,163.43c-3.18,1.87-3.28,9.86-2.79,16.27.35,4.69,1,8.53,1,8.53l-20.69,50.3s-7.67-35.84-7.79-51.84a11.86,11.86,0,0,1,.57-3.72C633.8,171.44,654.08,165,659.85,163.43Z" />
  <path
     id="path113"
     fill="#67647e"
     transform="translate(-120.42 -40.7)"
     d="M661.38,163s-.56.13-1.53.4A3,3,0,0,1,661.38,163Z" />
  <path
     id="path115"
     fill="#67647e"
     transform="translate(-120.42 -40.7)"
     d="M654.21,775.36l-8.33,6s-5.17,0-5.17,4.67-12.66,9.33-12.66,9.33-18.84,5.33-33.34,0c-4.7-1.73-6.14-4.69-5.59-8.3,1.15-7.53,11-17.82,18.09-25.37,4.79-5.09,7-11.84,7.94-17.68a52.82,52.82,0,0,0,.56-12.65l30.5-2.17a20.14,20.14,0,0,0,0,14.29,18.58,18.58,0,0,0,2.67,4.58c3.72,4.72,5,12.13,5.36,18A65.93,65.93,0,0,1,654.21,775.36Z" />
  <path
     id="path117"
     fill="#67647e"
     transform="translate(-120.42 -40.7)"
     d="M716.88,789.19s-2.33,7-24.17,9.34S674,784.69,674,784.69s-.11-.46-.25-1.29a49.76,49.76,0,0,1-.08-16.54c.76-4.26.1-11.65-.85-18.42-1.12-8.06-2.65-15.25-2.65-15.25l33.84,2.5s.59,6.89.93,13.85c.11,2.17.2,4.34.23,6.32a15.78,15.78,0,0,0,2.92,8.35,52.17,52.17,0,0,1,8.08,19.6,44.57,44.57,0,0,1,.62,4.76C716.86,789,716.88,789.19,716.88,789.19Z" />
  <path
     id="path119"
     fill="#67647e"
     transform="translate(-120.42 -40.7)"
     d="M654.21,775.36l-8.33,6s-5.17,0-5.17,4.67-12.66,9.33-12.66,9.33-18.84,5.33-33.34,0c-4.7-1.73-6.14-4.69-5.59-8.3.45,0,.88.06,1.24.07,5.94.19,11.72,1.79,17.63,2.32a87.64,87.64,0,0,0,10.12.16,35.3,35.3,0,0,0,5-.39c4-.71,7.71-2.78,11.28-4.81a6.4,6.4,0,0,0,2.25-1.76,8.6,8.6,0,0,0,1-2.68c1.26-4.52,4.78-8.14,8.82-10.52a38.46,38.46,0,0,1,7.77-3.35A65.93,65.93,0,0,1,654.21,775.36Z" />
  <path
     id="path121"
     fill="#67647e"
     transform="translate(-120.42 -40.7)"
     d="M716.88,789.19s-2.33,7-24.17,9.34S674,784.69,674,784.69s-.11-.46-.25-1.29c1,.52,1.85,1,2.24,1.22,2,1.17,3.79,2.78,5.87,3.87,5,2.63,11.05,1.85,16.64,1,2.65-.4,5.3-.8,7.94-1.29a20.08,20.08,0,0,0,5.81-1.72,34.62,34.62,0,0,0,3.92-2.66,44.57,44.57,0,0,1,.62,4.76C716.86,789,716.88,789.19,716.88,789.19Z" />
  <path
     id="path123"
     opacity="0.1"
     transform="translate(-120.42 -40.7)"
     d="M654.21,775.36l-8.33,6s-5.17,0-5.17,4.67-12.66,9.33-12.66,9.33-18.84,5.33-33.34,0c-4.7-1.73-6.14-4.69-5.59-8.3.45,0,.88.06,1.24.07,5.94.19,11.72,1.79,17.63,2.32a87.64,87.64,0,0,0,10.12.16,35.3,35.3,0,0,0,5-.39c4-.71,7.71-2.78,11.28-4.81a6.4,6.4,0,0,0,2.25-1.76,8.6,8.6,0,0,0,1-2.68c1.26-4.52,4.78-8.14,8.82-10.52a38.46,38.46,0,0,1,7.77-3.35A65.93,65.93,0,0,1,654.21,775.36Z" />
  <path
     id="path125"
     opacity="0.1"
     transform="translate(-120.42 -40.7)"
     d="M716.88,789.19s-2.33,7-24.17,9.34S674,784.69,674,784.69s-.11-.46-.25-1.29c1,.52,1.85,1,2.24,1.22,2,1.17,3.79,2.78,5.87,3.87,5,2.63,11.05,1.85,16.64,1,2.65-.4,5.3-.8,7.94-1.29a20.08,20.08,0,0,0,5.81-1.72,34.62,34.62,0,0,0,3.92-2.66,44.57,44.57,0,0,1,.62,4.76C716.86,789,716.88,789.19,716.88,789.19Z" />
  <path
     id="path127"
     opacity="0.1"
     transform="translate(-120.42 -40.7)"
     d="M646.21,729.19a20.14,20.14,0,0,0,0,14.29c-8.75,1.49-25.06,4.5-31.06.53a52.82,52.82,0,0,0,.56-12.65Z" />
  <path
     id="path129"
     opacity="0.1"
     transform="translate(-120.42 -40.7)"
     d="M705,749.54c-6.18.44-22.81,1.31-32.12-1.1-1.12-8.06-2.65-15.25-2.65-15.25l33.84,2.5S704.64,742.58,705,749.54Z" />
  <path
     id="path131"
     fill="#444053"
     transform="translate(-120.42 -40.7)"
     d="M729.38,516.36s-.52,6.25-1.35,15c-1.87,19.86-5.32,52.65-8,55.32-3.84,3.85-2.17,32.15-.67,37.15s0,41,0,41a183,183,0,0,0-5.5,46c.5,24-6.5,36.5-6.5,36.5s-33,3-39.83-3.38,0-57.12,0-57.12,12.33-41.5,9.33-47.5-6.5-20.5-6.5-20.5v-50.5c-4.85-8-7-19-7.93-28.94a152.17,152.17,0,0,1-.07-25.56s-6.21,12.7-12.54,25.26c-5.72,11.35-11.54,22.58-13,24.24-3,3.5-.5,19.5,0,27.5s-5.5,24-5.5,24c7.5,4.5,9,57.5,9,57.5s-5.5,13,6,27.5,7,42,5.5,41-32,7.5-38,0-12.5-28-12.5-28,3-21-3.5-40c-4.82-14.08-10.73-47.09-13.47-63.26a64.45,64.45,0,0,1-.54-17.76c1.26-11.81,3.2-33.67,2.51-51-.23-5.65-.07-14.63.31-25.16,1.29-36.1,5.19-90.34,5.19-90.34L619,407l17.9-12.14,4.38.67,81.62,12.57,3.17,40.26Z" />
  <path
     id="path133"
     opacity="0.1"
     transform="translate(-120.42 -40.7)"
     d="M619,407l-1.43,7.86s-12,57.5-14.5,87-13,21-13,21a46.76,46.76,0,0,0-3.36-7.16c1.29-36.1,5.19-90.34,5.19-90.34Z" />
  <path
     id="path135"
     fill="#efb7b9"
     transform="translate(-120.42 -40.7)"
     d="M704.71,188.86s-56,44.83-45.66,35.83c5.66-4.94,1.81-26-2.83-44-3.82-14.85-8.17-27.63-8.17-27.63s48.88-45.73,45.33-8.34c-1.25,13.18-.21,22.55,1.66,29.17C698.47,186,704.71,188.86,704.71,188.86Z" />
  <path
     id="path137"
     opacity="0.1"
     transform="translate(-120.42 -40.7)"
     d="M700.05,176.94l-35.5,27.75-10.34-11.5s-8.83-3.83-9.5.5-3.16,31,2,33.5,11.84,4.17,17.67,3.34,12.33-7.34,16.67-9.84,20.33-15.5,20.33-15.5l8-11.16Z" />
  <path
     id="path139"
     fill="#a36468"
     transform="translate(-120.42 -40.7)"
     d="M700.05,177.94l-35.5,27.75-10.34-11.5s-8.83-3.83-9.5.5-3.16,31,2,33.5,11.84,4.17,17.67,3.34,12.33-7.34,16.67-9.84,20.33-15.5,20.33-15.5l8-11.16Z" />
  <path
     id="path141"
     opacity="0.1"
     transform="translate(-120.42 -40.7)"
     d="M729.38,516.36s-.52,6.25-1.35,15c-11,.42-32.34,1.72-47.32,5.64a82.1,82.1,0,0,1-18.26,2.39,152.17,152.17,0,0,1-.07-25.56s-6.21,12.7-12.54,25.26A132.25,132.25,0,0,1,633.71,537l6.67-86.67s-.22-29.09.88-54.83l81.62,12.57,3.17,40.26Z" />
  <path
     id="path143"
     opacity="0.1"
     transform="translate(-120.42 -40.7)"
     d="M668.05,202.36s24.25-26.51,30-22.3,9.47,14.47,9.47,14.47L687.8,216.19Z" />
  <path
     id="path145"
     fill="#a36468"
     transform="translate(-120.42 -40.7)"
     d="M669.05,201.36s24.25-26.51,30-22.3,9.47,14.47,9.47,14.47L688.8,215.19Z" />
  <path
     id="path147"
     opacity="0.1"
     transform="translate(-120.42 -40.7)"
     d="M648.94,218.35l13.94-17.55s-2.21-16.59-7.32-14.47-6.62,10.61-6.62,10.61Z" />
  <path
     id="path149"
     fill="#a36468"
     transform="translate(-120.42 -40.7)"
     d="M647.88,217.19l13.94-17.55s-2.2-16.59-7.32-14.47-6.62,10.61-6.62,10.61Z" />
  <path
     id="path151"
     opacity="0.1"
     transform="translate(-120.42 -40.7)"
     d="M712.05,185.69s-28.71,31-45.85,33.08c-1.56.19-3.1.45-4.64.76-4.47.88-14.23,0-12.68-25.63l-2.17-4.54-13.33,8.17-4.5,36.66-8,94L609.05,432.86s36.33-3.5,46.5,5.67,13-50,13-50l27.83-120,29.67-77.17Z" />
  <path
     id="path153"
     opacity="0.1"
     transform="translate(-120.42 -40.7)"
     d="M726.05,195.36l-29.67,77.17-27.83,120s-2.84,59.16-13,50c-3.32-3-9.44-4.64-16.17-5.49a146.63,146.63,0,0,0-24.92-.56c-3.32.18-5.41.38-5.41.38l11.83-104.67,8-94,4.5-36.66,13.33-8.17,2.17,4.54c0,.67-.07,1.33-.1,2-.94,23.68,8.43,24.52,12.78,23.66,1.54-.31,3.08-.57,4.64-.76,12.14-1.49,30.08-17.46,39.51-26.64,3.89-3.8,6.34-6.44,6.34-6.44Z" />
  <path
     id="path155"
     fill="#e1e7ef"
     transform="translate(-120.42 -40.7)"
     d="M726.05,192.36l-29.67,77.17-27.83,120s-2.84,59.16-13,50c-3.32-3-9.44-4.64-16.17-5.49a146.63,146.63,0,0,0-24.92-.56c-3.32.18-5.41.38-5.41.38l11.83-104.67,8-94,4.5-36.66,13.33-8.17,2.17,4.54c0,.67-.07,1.33-.1,2-.94,23.68,8.43,24.52,12.78,23.66,1.54-.31,3.08-.57,4.64-.76,12.14-1.49,30.08-17.46,39.51-26.64,3.89-3.8,6.34-6.44,6.34-6.44Z" />
  <path
     id="path157"
     opacity="0.1"
     transform="translate(-120.42 -40.7)"
     d="M648.88,194.9c0,.67-.07,1.33-.1,2l-.23.16c-3.52,2.32-9.17,41.5-9.17,41.5l-7.33,99.83-13.5,74.5s-1.77,8.49-4.09,20.62c-3.32.18-5.41.38-5.41.38l11.83-104.67,8-94,4.5-36.66,13.33-8.17Z" />
  <path
     id="path159"
     fill="#67647e"
     transform="translate(-120.42 -40.7)"
     d="M658.07,188.23s-8,6.48-11.52,8.8-9.17,41.5-9.17,41.5l-7.33,99.83-13.5,74.5s-12,57.5-14.5,87-13,21-13,21-7.84-23-26.5-24.33-9-11.84-9-11.84,10.93-78.77,18.12-92.8a6.48,6.48,0,0,1,.38-.7c1.06-1.74,2.23-5.21,3.46-9.85,7.11-26.84,16.2-93,16.2-93l5.67-82c14.5-23.67,59.56-22.85,59.56-22.85Z" />
  <path
     id="path161"
     opacity="0.1"
     transform="translate(-120.42 -40.7)"
     d="M726.05,192.36l-29.67,77.17-27.83,120s-2.84,59.16-13,50c-3.32-3-9.44-4.64-16.17-5.49.12-20.34.74-56.84,3.67-72.18a203.82,203.82,0,0,0,3.16-42.5l36.34-79.17s27.33-33.69,27.5-38.51c.06-1.78-1.88-5.08-4.34-8.55,3.89-3.8,6.34-6.44,6.34-6.44Z" />
  <path
     id="path163"
     fill="#67647e"
     transform="translate(-120.42 -40.7)"
     d="M634.71,535l6.67-86.67s-.5-64.67,3.67-86.5a203.82,203.82,0,0,0,3.16-42.5l36.34-79.17s27.33-33.69,27.5-38.51-14.32-20.85-14.32-20.85,31.65,3.7,35.82,17.86,27,19.67,27,19.67,11,10,10.83,38.67-35,51.16-35,51.16-5.83,54-.83,78.34.66,142.66.66,142.66-33.5.34-54.5,5.84S634.71,535,634.71,535Z" />
  <path
     id="path165"
     fill="#b07473"
     transform="translate(-120.42 -40.7)"
     d="M684.05,397.53l25.66,97.16s3.5,8.67,21.5,2,70.34-28.33,70.34-28.33,4.66-7.67-4-21.83l-26.17-76.67Z" />
  <polygon
     id="polygon167"
     fill="#e1e7ef"
     points="596.84 399.79 638.34 354.16 664.84 343.41 675.71 398.28 625.34 453.03 596.84 399.79" />
  <path
     id="path169"
     fill="#efb7b9"
     transform="translate(-120.42 -40.7)"
     d="M761.6,455.74S749.26,463,746,463.24s-14.73,21.92-9.88,21.75,16.13-6,15-3-8.49,12-10.62,11.14-3.13,6.61,6,4,21.25-4.87,21.25-4.87,6.5-4.75,6.75-8.13S780.38,463,780.38,463Z" />
  <path
     id="path171"
     fill="#efb7b9"
     transform="translate(-120.42 -40.7)"
     d="M563.49,199.74s10.68-23.06,17.06-30.68,34.21-15.82,37-13.57-14,14.88-17,16.5,19.38,16.67,19.84,17,17.5-1.51,8.75,4.24-34.62,11.6-34.62,11.6a13,13,0,0,0-10,2.4C579.51,210.86,563.49,199.74,563.49,199.74Z" />
  <path
     id="path173"
     opacity="0.1"
     transform="translate(-120.42 -40.7)"
     d="M785.66,456.89A69.18,69.18,0,0,1,780,470.24c-2.5-2.26-26.37-10.13-26.37-10.13l2.65-4.09,4.32-6.66s21.28-4.62,24.9,0C786.72,450.91,786.5,453.77,785.66,456.89Z" />
  <path
     id="path175"
     fill="#a36468"
     transform="translate(-120.42 -40.7)"
     d="M786.66,455.89A69.18,69.18,0,0,1,781,469.24c-2.5-2.26-26.37-10.13-26.37-10.13l2.65-4.09,4.32-6.66s21.28-4.62,24.9,0C787.72,449.91,787.5,452.77,786.66,455.89Z" />
  <path
     id="path177"
     opacity="0.1"
     transform="translate(-120.42 -40.7)"
     d="M587.88,204.94a35.16,35.16,0,0,1-2.7,4.94c-3.85,6.07-9.68,13.23-9.68,13.23s-22.74-10.46-22.74-10.92,6.9-11.33,12.51-19.9c2.27-3.46,4.32-6.52,5.62-8.31,0,0,8.49,17.76,16.87,17.88C590,201.89,588.79,202.77,587.88,204.94Z" />
  <path
     id="path179"
     fill="#a36468"
     transform="translate(-120.42 -40.7)"
     d="M586.88,205.94a35.16,35.16,0,0,1-2.7,4.94c-3.85,6.07-9.68,13.23-9.68,13.23s-22.74-10.46-22.74-10.92,6.9-11.33,12.51-19.9c2.27-3.46,4.32-6.52,5.62-8.31,0,0,8.49,17.76,16.87,17.88C589,202.89,587.79,203.77,586.88,205.94Z" />
  <polygon
     id="polygon181"
     fill="#b07473"
     points="594.71 348.66 591.79 339.91 632.77 337.03 617.46 338.66 597.96 342.85 599.46 348.66 594.71 348.66" />
  <path
     id="path183"
     opacity="0.1"
     transform="translate(-120.42 -40.7)"
     d="M786.66,455.89c-4.52-2.13-16.58-6.56-29.38-.87l4.32-6.66s21.28-4.62,24.9,0C787.72,449.91,787.5,452.77,786.66,455.89Z" />
  <path
     id="path185"
     fill="#67647e"
     transform="translate(-120.42 -40.7)"
     d="M789.05,401.86c-.1,1.45-.19,2.9-.28,4.34-.25,4.41-.42,8.78-.53,13-.5,19.54.31,35.66.31,35.66s-15.5-9.33-32-1.5l-1.64-31.62,0-.55-1.69-13.83-5.48-44.67s-10.33-62-13.5-64.33,23.5-52.5,23.5-52.5L771.38,257l8.5,57.33v29.33S790.88,375.53,789.05,401.86Z" />
  <path
     id="path187"
     opacity="0.1"
     transform="translate(-120.42 -40.7)"
     d="M587.38,204.53l-3.2,6.35c-3.85,6.07-9.68,13.23-9.68,13.23s-22.74-10.46-22.74-10.92,6.9-11.33,12.51-19.9c1.73-1.95,2.78-3.1,2.78-3.1C560.38,206.69,587.38,204.53,587.38,204.53Z" />
  <path
     id="path189"
     fill="#67647e"
     transform="translate(-120.42 -40.7)"
     d="M606.71,201.68l-9.33,4.68s-11.5,15.5-14.83,17.17-5,1.5-5,1.5l9.83-19.5s-27,2.16-20.33-14.34c0,0-30.17,33-33.5,46.34,0,0-16.67,27.66-12.67,41.33s20.17,16.33,31.83,12.17,47.5-22.5,47.5-22.5Z" />
  <path
     id="path191"
     opacity="0.1"
     transform="translate(-120.42 -40.7)"
     d="M573.21,234.19s-25.16,28.17-23.16,32S571.88,239.86,573.21,234.19Z" />
  <path
     id="path193"
     opacity="0.2"
     transform="translate(-120.42 -40.7)"
     d="M686.8,158.36s35.41-10.67,55.41,27.83,20.67,41.17,19.67,43-39.83-8.33-42-3.83,22,23,22,23l-93.67,71,39.36-83.64A63,63,0,0,1,698,219.65c6.47-7.24,15.32-18.33,12.18-21.75-2.76-3-7.17-10.83-13.13-19.84C692.71,171.46,685.78,164,686.8,158.36Z" />
  <path
     id="path195"
     fill="#67647e"
     transform="translate(-120.42 -40.7)"
     d="M685.8,157.36s35.41-10.67,55.41,27.83,20.67,41.17,19.67,43-39.83-8.33-42-3.83,22,23,22,23l-92.67,72,38.36-84.64A63,63,0,0,1,697,218.65c6.47-7.24,15.32-18.33,12.18-21.75-2.76-3-7.17-10.83-13.13-19.84C691.71,170.46,684.78,163,685.8,157.36Z" />
  <path
     id="path197"
     opacity="0.1"
     transform="translate(-120.42 -40.7)"
     d="M685.8,157.36s35.41-10.67,55.41,27.83,20.67,41.17,19.67,43-39.83-8.33-42-3.83,22,23,22,23l-92.67,72,40.2-88.71a35.15,35.15,0,0,1,6.23-9.39c6.34-6.82,18.12-20.49,14.57-24.36-2.76-3-7.17-10.83-13.13-19.84C691.71,170.46,684.78,163,685.8,157.36Z" />
  <circle
     id="circle199"
     fill="#444053"
     r="7.33"
     cy="285.83"
     cx="572.63" />
  <circle
     id="circle201"
     fill="#444053"
     r="7.33"
     cy="331.33"
     cx="572.63" />
  <path
     id="path203"
     fill="#67647e"
     transform="translate(-120.42 -40.7)"
     d="M788.24,419.2c-4.22,1-24.23.55-33.33,2.54l0-.55-1.69-13.83c10.26-1.28,32.56-3.71,35.58-1.16C792.71,409.53,793.27,418.05,788.24,419.2Z" />
  <path
     id="path205"
     opacity="0.1"
     transform="translate(-120.42 -40.7)"
     d="M788.24,420.2c-4.22,1-24.23.55-33.33,2.54l0-.55-1.69-13.83c10.26-1.28,32.56-3.71,35.58-1.16C792.71,410.53,793.27,419.05,788.24,420.2Z" />
  <path
     id="path207"
     opacity="0.1"
     transform="translate(-120.42 -40.7)"
     d="M788.24,419.2c-4.22,1-24.23.55-33.33,2.54l0-.55-1.69-13.83c10.26-1.28,32.56-3.71,35.58-1.16C792.71,409.53,793.27,418.05,788.24,419.2Z" />
  <circle
     id="circle209"
     fill="#444053"
     r="4.42"
     cy="371.83"
     cx="663.46" />
  <path
     id="path211"
     opacity="0.1"
     fill="#fff"
     transform="translate(-120.42 -40.7)"
     d="M700.38,430.19l18.67,63.67s5,2.33,5-1.83S700.38,430.19,700.38,430.19Z" />
  <path
     id="path213"
     opacity="0.1"
     transform="translate(-120.42 -40.7)"
     d="M693.21,170.77a39.81,39.81,0,0,1-3.69,2.63c-6.35,4-12,9.43-20.09,9.43a40.93,40.93,0,0,1-13.21-2.17c-3.82-14.85-8.17-27.63-8.17-27.63s48.88-45.73,45.33-8.34C692.13,157.87,691.34,164.15,693.21,170.77Z" />
  <path
     id="path215"
     fill="#efb7b9"
     transform="translate(-120.42 -40.7)"
     d="M710.49,139.77a41.06,41.06,0,1,1-41.06-41.06A40.87,40.87,0,0,1,710.49,139.77Z" />
  <path
     id="path217"
     fill="#e1e7ef"
     transform="translate(-120.42 -40.7)"
     d="M646.16,174.13a4.78,4.78,0,0,1-1.92,2.25l-6.52,4-12.19,7.41-19.29,11.72q-.68.4-1.38.75a16.6,16.6,0,0,1-14.63.2,12,12,0,0,1-6.83-8.52,14.23,14.23,0,0,1,5.22-14,.75.75,0,0,1,.36-.18,35.49,35.49,0,0,0,11.4-5.58l12.14-8.4,10.84-9.91,5.48-3.79a5.11,5.11,0,0,1,5.51-.2C640,153.09,651.16,161.5,646.16,174.13Z" />
  <path
     id="path219"
     fill="#a36468"
     transform="translate(-120.42 -40.7)"
     d="M637.72,180.33l-12.19,7.41c-2.54-10.24-9-17.47-14.61-22.93l12.44-11C632.82,158.5,636.58,174.17,637.72,180.33Z" />
  <path
     id="path221"
     opacity="0.1"
     transform="translate(-120.42 -40.7)"
     d="M604.86,200.21a16.6,16.6,0,0,1-14.63.2,12,12,0,0,1-6.83-8.52,14.23,14.23,0,0,1,5.22-14,30.73,30.73,0,0,1,8.3,5.21,23.32,23.32,0,0,1,7.18,11.3A24,24,0,0,1,604.86,200.21Z" />
  <path
     id="path223"
     opacity="0.1"
     transform="translate(-120.42 -40.7)"
     d="M710.49,139.77a40.87,40.87,0,0,1-3.82,17.31,23.18,23.18,0,0,0-5.52,8.76c-2.78,3.38-3.88,5.29-7.59,7.63-1.49-1.57-4.84-2.52-5.45-4.55-1.55-5.23-.67-10.82-.59-16.27,0-2.42-.34-5.28-2.47-6.44-1.77-1-4-.28-5.74.7s-3.47,2.25-5.47,2.48c-3,.34-5.74-1.77-7.42-4.25s-2.65-5.38-4.24-7.92c-2.1-3.35-5.2-5.92-8.25-8.42-3.49-2.88-6.88-6.07-10.6-8.65-2.22-1.55-4.88-2.27-7.07-3.83l-.35-.26a41.06,41.06,0,0,1,74.58,23.71Z" />
  <path
     id="path225"
     fill="#585268"
     transform="translate(-120.42 -40.7)"
     d="M629.59,94.39c.87-5.77,5.63-11.18,11.46-11.28,4.81-.08,8.91,3.18,13.17,5.41a33.26,33.26,0,0,0,28.36,1c2.62-1.14,5.27-2.67,8.12-2.44s5.13,2.1,7.1,4a47.51,47.51,0,0,1,10.77,16.3c.71,1.8,1.36,3.72,2.74,5.07a18.47,18.47,0,0,0,3.42,2.27,18.8,18.8,0,0,1,8.08,12.17,26.8,26.8,0,0,1-1.47,14.75A22.43,22.43,0,0,1,716,150.2c-1.82,1.71-4,3-5.91,4.6a23.6,23.6,0,0,0-8,21.88c-5.32,1.23-10.42-3.54-12-8.76s-.67-10.82-.59-16.27c0-2.42-.34-5.28-2.47-6.44-1.77-1-4-.28-5.74.7s-3.47,2.25-5.47,2.48c-3,.34-5.74-1.76-7.42-4.25s-2.64-5.38-4.24-7.92c-2.09-3.35-5.2-5.92-8.25-8.42-3.49-2.87-6.88-6.07-10.59-8.65-2.23-1.55-4.89-2.27-7.08-3.83C631.63,110.58,629.59,101.94,629.59,94.39Z" />
  <path
     id="path227"
     opacity="0.1"
     transform="translate(-120.42 -40.7)"
     d="M661.38,163s-.56.13-1.53.4A3,3,0,0,1,661.38,163Z" />
  <g
     id="g233"
     opacity="0.1">
    <path
       id="path229"
       transform="translate(-120.42 -40.7)"
       d="M692.11,164.65c-1.55-5.23-.67-10.82-.59-16.27,0-2.42-.34-5.28-2.47-6.44-1.77-1-4-.27-5.74.7s-3.47,2.25-5.47,2.48c-3,.34-5.74-1.76-7.42-4.24s-2.64-5.39-4.24-7.93c-2.1-3.34-5.2-5.91-8.25-8.42-3.49-2.87-6.88-6.07-10.59-8.65-2.23-1.55-4.89-2.26-7.08-3.83-6.63-4.74-8.67-13.38-8.67-20.93A14.11,14.11,0,0,1,632.91,87a14.42,14.42,0,0,0-3.32,7.16c0,7.55,2,16.19,8.67,20.93,2.19,1.57,4.85,2.28,7.08,3.83,3.71,2.58,7.1,5.78,10.59,8.65,3.05,2.51,6.15,5.08,8.25,8.42,1.6,2.54,2.55,5.45,4.24,7.93s4.44,4.58,7.42,4.24c2-.23,3.7-1.51,5.47-2.48s4-1.66,5.74-.7c2.13,1.16,2.51,4,2.47,6.44-.08,5.45-1,11,.59,16.27s6.66,10,12,8.76a22.64,22.64,0,0,1-.32-2.84C697.35,173.22,693.44,169.11,692.11,164.65Z" />
    <path
       id="path231"
       transform="translate(-120.42 -40.7)"
       d="M718,146.93c-1.82,1.72-4,3-5.91,4.6a22.61,22.61,0,0,0-5.21,6.3,21.32,21.32,0,0,1,3.21-3.3c1.92-1.6,4.09-2.88,5.91-4.6a19.77,19.77,0,0,0,3.64-4.78A17.29,17.29,0,0,1,718,146.93Z" />
  </g>
  <path
     id="path235"
     opacity="0.1"
     transform="translate(-120.42 -40.7)"
     d="M662.74,503.89c-.73,2.17-1.77,4.29-1.91,6.58-.24,3.9,2.14,7.52,2.31,11.43.2,4.53-2.56,8.6-5.2,12.3,3.13,0,6.55-1.09,8.14-3.78a12.65,12.65,0,0,0,1.17-3.29c2.83-11.29,5.58-23.64.66-34.18a15.38,15.38,0,0,0-3.25-4.88C663.83,493.39,664.53,498.62,662.74,503.89Z" />
  <path
     id="path237"
     opacity="0.1"
     transform="translate(-120.42 -40.7)"
     d="M584.52,424.21,576.21,413c-2-2.71-4.07-5.53-4.79-8.82-.78-3.61.13-7.35.25-11,0-.41,0-.83,0-1.25a6.48,6.48,0,0,1,.38-.7c1.06-1.74,2.23-5.21,3.46-9.85a12,12,0,0,1,2.76,4.25c3.87,9.44.29,20.52,3.49,30.2C582.68,418.61,584.18,421.27,584.52,424.21Z" />
  <path
     id="path239"
     opacity="0.1"
     transform="translate(-120.42 -40.7)"
     d="M605.67,763.55a35.45,35.45,0,0,0,28.74,5.69" />
  <path
     id="path241"
     opacity="0.1"
     transform="translate(-120.42 -40.7)"
     d="M674.53,765.2a21.06,21.06,0,0,0,30.67-2" />
  <path
     id="path243"
     opacity="0.1"
     transform="translate(-120.42 -40.7)"
     d="M630.65,614.45a18.92,18.92,0,0,1-20.77-9.18" />
  <path
     id="path245"
     opacity="0.1"
     transform="translate(-120.42 -40.7)"
     d="M678.05,639.72a27.61,27.61,0,0,0,17.85-4.9" />
  <path
     id="path247"
     opacity="0.1"
     transform="translate(-120.42 -40.7)"
     d="M645.7,700.12c-5.33,2.16-10.09,5.54-15.28,8s-11.2,4.07-16.69,2.35" />
</svg>
